0
Teddy_Attack1
0.05 0 0 0 0 0.05 0 0 0 0 0.05 0 0 0 0 1.0
Teddy_D.dds
Teddy_Normal.dds
0
GroundQuad
15.0 0 0 0 0 15.0 0 0 0 0 15.0 0 0 0 0 1.0
Fieldstone.dds
FieldstoneBump.dds
0
Teddy_Attack1
1.0 0 0 0 0 1.0 0 0 0 0 1.0 0 0 0 0 1.0
Teddy_D.dds
Teddy_Normal.dds
1
0
1 1 1 1
0 1 0 1
1
1
1 1 1 1
0 0 0 0
1
2
1 1 1 1
0 0 0 0
0 1 0 1
0
0
0
0
